Bootstrap Confidence Intervals • rsample
…
First, let’s create a set of resamples and fit separate models to each. The options apparent = TRUE will be set. This creates a final resample that is a copy of the original (unsampled) data set. This is required for some of the interval methods.

set.seed(462)
nlin_bt <-
  bootstraps(O2K, times = 2000, apparent = TRUE) %>%
  mutate(models = map(splits, ~ fit_fun(.x, start = start_vals)))
nlin_bt

## # Bootstrap sampling with apparent sample 
## # A tibble: 2,001 x 3
##    splits          id            models              
##    <list>          <chr>         <list>              
##  1 <split [36/14]> Bootstrap0001 <tibble[,5] [3 × 5]>
##  2 <split [36/13]> Bootstrap0002 <tibble[,5] [3 × 5]>
##  3 <split [36/16]> Bootstrap0003 <tibble[,5] [3 × 5]>
##  4 <split [36/12]> Bootstrap0004 <tibble[,5] [3 × 5]>
##  5 <split [36/16]> Bootstrap0005 <tibble[,5] [3 × 5]>
##  6 <split [36/13]> Bootstrap0006 <tibble[,5] [3 × 5]>
##  7 <split [36/15]> Bootstrap0007 <tibble[,5] [3 × 5]>
##  8 <split [36/16]> Bootstrap0008 <tibble[,5] [3 × 5]>
##  9 <split [36/11]> Bootstrap0009 <tibble[,5] [3 × 5]>
## 10 <split [36/13]> Bootstrap0010 <tibble[,5] [3 × 5]>
## # … with 1,991 more rows
…
