# printing

    Code
      bootstraps(warpbreaks)
    Output
      # Bootstrap sampling 
      # A tibble: 25 x 2
         splits          id         
         <list>          <chr>      
       1 <split [54/19]> Bootstrap01
       2 <split [54/21]> Bootstrap02
       3 <split [54/17]> Bootstrap03
       4 <split [54/18]> Bootstrap04
       5 <split [54/21]> Bootstrap05
       6 <split [54/17]> Bootstrap06
       7 <split [54/18]> Bootstrap07
       8 <split [54/17]> Bootstrap08
       9 <split [54/20]> Bootstrap09
      10 <split [54/18]> Bootstrap10
      # ... with 15 more rows
