…
---

    Code
      reverse_splits(permutes$splits[[1]])
    Condition
      Error in `reverse_splits()`:
      ! Permutations cannot have their splits reversed

# reshuffle_rset is working

    Code
      out
    Output
      # Bootstrap sampling 
      # A tibble: 25 x 2
         splits          id         
         <list>          <chr>      
       1 <split [50/20]> Bootstrap01
       2 <split [50/14]> Bootstrap02
       3 <split [50/15]> Bootstrap03
       4 <split [50/14]> Bootstrap04
       5 <split [50/22]> Bootstrap05
       6 <split [50/20]> Bootstrap06
       7 <split [50/18]> Bootstrap07
       8 <split [50/19]> Bootstrap08
       9 <split [50/17]> Bootstrap09
      10 <split [50/17]> Bootstrap10
      # ... with 15 more rows

---

    Code
      out
    Output
      # Bootstrap sampling 
      # A tibble: 25 x 2
         splits          id         
         <list>          <chr>      
       1 <split [50/15]> Bootstrap01
       2 <split [50/20]> Bootstrap02
       3 <split [50/15]> Bootstrap03
       4 <split [50/25]> Bootstrap04
       5 <split [50/20]> Bootstrap05
       6 <split [50/25]> Bootstrap06
       7 <split [50/10]> Bootstrap07
       8 <split [50/15]> Bootstrap08
       9 <split [50/25]> Bootstrap09
      10 <split [50/20]> Bootstrap10
      # ... with 15 more rows
…
---

    Code
      out
    Output
      # Leave-one-out cross-validation 
      # A tibble: 50 x 2
         splits         id        
         <list>         <chr>     
       1 <split [49/1]> Resample1 
       2 <split [49/1]> Resample2 
       3 <split [49/1]> Resample3 
       4 <split [49/1]> Resample4 
       5 <split [49/1]> Resample5 
       6 <split [49/1]> Resample6 
       7 <split [49/1]> Resample7 
       8 <split [49/1]> Resample8 
       9 <split [49/1]> Resample9 
      10 <split [49/1]> Resample10
      # ... with 40 more rows

---

    Code
      out
    Output
      # Monte Carlo cross-validation (0.75/0.25) with 25 resamples  
      # A tibble: 25 x 2
         splits          id        
         <list>          <chr>     
       1 <split [37/13]> Resample01
       2 <split [37/13]> Resample02
       3 <split [37/13]> Resample03
       4 <split [37/13]> Resample04
       5 <split [37/13]> Resample05
       6 <split [37/13]> Resample06
       7 <split [37/13]> Resample07
       8 <split [37/13]> Resample08
       9 <split [37/13]> Resample09
      10 <split [37/13]> Resample10
      # ... with 15 more rows

---

    Code
      out
    Output
      # Grouped Monte Carlo cross-validation (0.75/0.25) with 25 resamples  
      # A tibble: 25 x 2
         splits          id        
         <list>          <chr>     
       1 <split [40/10]> Resample01
       2 <split [40/10]> Resample02
       3 <split [40/10]> Resample03
       4 <split [40/10]> Resample04
       5 <split [40/10]> Resample05
       6 <split [40/10]> Resample06
       7 <split [40/10]> Resample07
       8 <split [40/10]> Resample08
       9 <split [40/10]> Resample09
      10 <split [40/10]> Resample10
      # ... with 15 more rows
…
---

    Code
      out
    Output
      # Rolling origin forecast resampling 
      # A tibble: 45 x 2
         splits         id     
         <list>         <chr>  
       1 <split [5/1]>  Slice01
       2 <split [6/1]>  Slice02
       3 <split [7/1]>  Slice03
       4 <split [8/1]>  Slice04
       5 <split [9/1]>  Slice05
       6 <split [10/1]> Slice06
       7 <split [11/1]> Slice07
       8 <split [12/1]> Slice08
       9 <split [13/1]> Slice09
      10 <split [14/1]> Slice10
      # ... with 35 more rows

---

    Code
      out
    Output
      # Sliding window resampling 
      # A tibble: 49 x 2
         splits        id     
         <list>        <chr>  
       1 <split [1/1]> Slice01
       2 <split [1/1]> Slice02
       3 <split [1/1]> Slice03
       4 <split [1/1]> Slice04
       5 <split [1/1]> Slice05
       6 <split [1/1]> Slice06
       7 <split [1/1]> Slice07
       8 <split [1/1]> Slice08
       9 <split [1/1]> Slice09
      10 <split [1/1]> Slice10
      # ... with 39 more rows

---

    Code
      out
    Output
      # Sliding index resampling 
      # A tibble: 49 x 2
         splits        id     
         <list>        <chr>  
       1 <split [1/1]> Slice01
       2 <split [1/1]> Slice02
       3 <split [1/1]> Slice03
       4 <split [1/1]> Slice04
       5 <split [1/1]> Slice05
       6 <split [1/1]> Slice06
       7 <split [1/1]> Slice07
       8 <split [1/1]> Slice08
       9 <split [1/1]> Slice09
      10 <split [1/1]> Slice10
      # ... with 39 more rows
…
