…
# Leave-one-group-out CV
group_vfold_cv(ames, group = Neighborhood)
#> # Group 28-fold cross-validation 
#> # A tibble: 28 × 2
#>    splits             id        
#>    <list>             <chr>     
#>  1 <split [2663/267]> Resample01
#>  2 <split [2779/151]> Resample02
#>  3 <split [2691/239]> Resample03
#>  4 <split [2748/182]> Resample04
#>  5 <split [2928/2]>   Resample05
#>  6 <split [2920/10]>  Resample06
#>  7 <split [2902/28]>  Resample07
#>  8 <split [2837/93]>  Resample08
#>  9 <split [2859/71]>  Resample09
#> 10 <split [2858/72]>  Resample10
#> # ℹ 18 more rows
…
