Simulate datasets — sim_classification • rsample
…
    References

    van der Laan, Mark J., Polley, Eric C and Hubbard, Alan E.. "Super Learner"
Statistical Applications in Genetics and Molecular Biology, vol. 6, no. 1,
2007. DOI: 10.2202/1544-6115.1309.

Stephanie Sapp, Mark J. van der Laan & John Canny (2014) Subsemble: an
ensemble method for combining subset-specific algorithm fits, Journal of
Applied Statistics, 41:6, 1247-1259, DOI: 10.1080/02664763.2013.864263

    Examples

set.seed(1)
sim_regression(100)
#> # A tibble: 100 × 21
#>    outcome predictor_01 predictor_02 predictor_03 predictor_04
#>      <dbl>        <dbl>        <dbl>        <dbl>        <dbl>
#>  1    8.49       -1.88        -1.86        1.23          2.68 
#>  2   19.3         0.551        0.126       5.07         -3.14 
#>  3   57.7        -2.51        -2.73        4.76          5.91 
#>  4   -8.41        4.79         0.474      -0.993        -1.15 
#>  5   43.0         0.989       -1.96       -6.86          4.96 
#>  6   72.3        -2.46         5.30        7.49          4.54 
#>  7   -3.36        1.46         2.15        2.00          0.249
#>  8   -3.82        2.21         2.73        1.62          1.70 
#>  9   22.7         1.73         1.15       -0.0402       -3.07 
#> 10   25.7        -0.916        5.05        1.53          0.969
#> # … with 90 more rows, and 16 more variables: predictor_05 <dbl>,
#> #   predictor_06 <dbl>, predictor_07 <dbl>, predictor_08 <dbl>,
#> #   predictor_09 <dbl>, predictor_10 <dbl>, predictor_11 <dbl>,
#> #   predictor_12 <dbl>, predictor_13 <dbl>, predictor_14 <dbl>,
#> #   predictor_15 <dbl>, predictor_16 <dbl>, predictor_17 <dbl>,
#> #   predictor_18 <dbl>, predictor_19 <dbl>, predictor_20 <dbl>

# pipe any of these functions to resampling
library(dplyr)
sim_classification(100) %>%
    bootstraps(strata = class)
#> # Bootstrap sampling using stratification 
#> # A tibble: 25 × 2
#>    splits           id         
#>    <list>           <chr>      
#>  1 <split [100/34]> Bootstrap01
#>  2 <split [100/40]> Bootstrap02
#>  3 <split [100/38]> Bootstrap03
#>  4 <split [100/35]> Bootstrap04
#>  5 <split [100/36]> Bootstrap05
#>  6 <split [100/36]> Bootstrap06
#>  7 <split [100/41]> Bootstrap07
#>  8 <split [100/37]> Bootstrap08
#>  9 <split [100/33]> Bootstrap09
#> 10 <split [100/37]> Bootstrap10
#> # … with 15 more rows
…
