…
# assessment set will contain two months of data. To ensure that we have
# enough data to fit our models, we'll `skip` the first 4 expanding windows.
# Finally, to thin out the results, we'll `step` forward by 2 between
# each resample.
sliding_period(
  Chicago,
  date,
  "month",
  lookback = Inf,
  assess_stop = 2,
  skip = 4,
  step = 2
)
#> # Sliding period resampling 
#> # A tibble: 91 × 2
#>    splits           id     
#>    <list>           <chr>  
#>  1 <split [130/61]> Slice01
#>  2 <split [191/61]> Slice02
#>  3 <split [252/61]> Slice03
#>  4 <split [313/62]> Slice04
#>  5 <split [375/59]> Slice05
#>  6 <split [434/61]> Slice06
#>  7 <split [495/61]> Slice07
#>  8 <split [556/61]> Slice08
#>  9 <split [617/61]> Slice09
#> 10 <split [678/62]> Slice10
#> # ℹ 81 more rows
```
