Time-based Resampling — slide-resampling • rsample
…
#> # Sliding period resampling 
#> # A tibble: 91 x 2
#>    splits           id     
#>    <list>           <chr>  
#>  1 <split [130/61]> Slice01
#>  2 <split [191/61]> Slice02
#>  3 <split [252/61]> Slice03
#>  4 <split [313/62]> Slice04
#>  5 <split [375/59]> Slice05
#>  6 <split [434/61]> Slice06
#>  7 <split [495/61]> Slice07
#>  8 <split [556/61]> Slice08
#>  9 <split [617/61]> Slice09
#> 10 <split [678/62]> Slice10
#> # … with 81 more rows
…
