Bootstrap Confidence Intervals • rsample
…
# Will be used to fit the models to different bootstrap data sets:
fit_fun <- function(split, ...) {
  survreg(..., data = analysis(split))
}

First, let’s create a set of resamples and fit separate models to each. The options apparent = TRUE will be set. This create a final resample that is simple a copy of the original (unsampled) data set. This is required for some of the interval methods.

set.seed(462)
ov_bt <-
  bootstraps(ovarian, times = 2000, apparent = TRUE) %>%
  mutate(models = map(splits, fit_fun, f, dist = 'weibull'))
ov_bt

## # Bootstrap sampling with apparent sample 
## # A tibble: 2,001 x 3
##    splits          id            models       
##  * <list>          <chr>         <list>       
##  1 <split [26/9]>  Bootstrap0001 <S3: survreg>
##  2 <split [26/9]>  Bootstrap0002 <S3: survreg>
##  3 <split [26/9]>  Bootstrap0003 <S3: survreg>
##  4 <split [26/8]>  Bootstrap0004 <S3: survreg>
##  5 <split [26/8]>  Bootstrap0005 <S3: survreg>
##  6 <split [26/11]> Bootstrap0006 <S3: survreg>
##  7 <split [26/8]>  Bootstrap0007 <S3: survreg>
##  8 <split [26/10]> Bootstrap0008 <S3: survreg>
##  9 <split [26/11]> Bootstrap0009 <S3: survreg>
## 10 <split [26/10]> Bootstrap0010 <S3: survreg>
## # … with 1,991 more rows
…
