Recipes with rsample • rsample
…
The next section will explore recipes and bootstrap resampling for modeling:

library(rsample)
set.seed(7712)
bt_samples <- bootstraps(ames)
bt_samples

## # Bootstrap sampling 
## # A tibble: 25 x 2
##    splits              id         
##    <list>              <chr>      
##  1 <split [2.9K/1.1K]> Bootstrap01
##  2 <split [2.9K/1.1K]> Bootstrap02
##  3 <split [2.9K/1.1K]> Bootstrap03
##  4 <split [2.9K/1.1K]> Bootstrap04
##  5 <split [2.9K/1.1K]> Bootstrap05
##  6 <split [2.9K/1.1K]> Bootstrap06
##  7 <split [2.9K/1.1K]> Bootstrap07
##  8 <split [2.9K/1.1K]> Bootstrap08
##  9 <split [2.9K/1.1K]> Bootstrap09
## 10 <split [2.9K/1.1K]> Bootstrap10
## # … with 15 more rows
…
## <Training/Validation/Total>
## <2930/1095/2930>

Working with Resamples

We can add a recipe column to the tibble. recipes has a convenience function called prepper that can be used to call prep but has the split object as the first argument (for easier purrring):

library(purrr)

bt_samples$recipes <- map(bt_samples$splits, prepper, recipe = rec)
bt_samples

## # Bootstrap sampling 
## # A tibble: 25 x 3
##    splits              id          recipes 
##    <list>              <chr>       <list>  
##  1 <split [2.9K/1.1K]> Bootstrap01 <recipe>
##  2 <split [2.9K/1.1K]> Bootstrap02 <recipe>
##  3 <split [2.9K/1.1K]> Bootstrap03 <recipe>
##  4 <split [2.9K/1.1K]> Bootstrap04 <recipe>
##  5 <split [2.9K/1.1K]> Bootstrap05 <recipe>
##  6 <split [2.9K/1.1K]> Bootstrap06 <recipe>
##  7 <split [2.9K/1.1K]> Bootstrap07 <recipe>
##  8 <split [2.9K/1.1K]> Bootstrap08 <recipe>
##  9 <split [2.9K/1.1K]> Bootstrap09 <recipe>
## 10 <split [2.9K/1.1K]> Bootstrap10 <recipe>
## # … with 15 more rows
…
Now, to fit the model, the fit function only needs the recipe as input. This is because the above code implicitly used the retain = TRUE option in prep. Otherwise, the split objects would also be needed to bake the recipe (as it will in the prediction function below).

fit_lm <- function(rec_obj, ...) 
  lm(..., data = juice(rec_obj, everything()))

bt_samples$lm_mod <- 
  map(
    bt_samples$recipes, 
    fit_lm, 
    Sale_Price ~ .
  )
bt_samples

## # Bootstrap sampling 
## # A tibble: 25 x 4
##    splits              id          recipes  lm_mod
##    <list>              <chr>       <list>   <list>
##  1 <split [2.9K/1.1K]> Bootstrap01 <recipe> <lm>  
##  2 <split [2.9K/1.1K]> Bootstrap02 <recipe> <lm>  
##  3 <split [2.9K/1.1K]> Bootstrap03 <recipe> <lm>  
##  4 <split [2.9K/1.1K]> Bootstrap04 <recipe> <lm>  
##  5 <split [2.9K/1.1K]> Bootstrap05 <recipe> <lm>  
##  6 <split [2.9K/1.1K]> Bootstrap06 <recipe> <lm>  
##  7 <split [2.9K/1.1K]> Bootstrap07 <recipe> <lm>  
##  8 <split [2.9K/1.1K]> Bootstrap08 <recipe> <lm>  
##  9 <split [2.9K/1.1K]> Bootstrap09 <recipe> <lm>  
## 10 <split [2.9K/1.1K]> Bootstrap10 <recipe> <lm>  
## # … with 15 more rows
…
bt_samples$pred <- 
  pmap(
    lst(
      split_obj = bt_samples$splits, 
      rec_obj = bt_samples$recipes, 
      model_obj = bt_samples$lm_mod
    ),
    pred_lm 
  )
bt_samples

## # Bootstrap sampling 
## # A tibble: 25 x 5
##    splits              id          recipes  lm_mod pred                
##    <list>              <chr>       <list>   <list> <list>              
##  1 <split [2.9K/1.1K]> Bootstrap01 <recipe> <lm>   <tibble [1,095 × 2]>
##  2 <split [2.9K/1.1K]> Bootstrap02 <recipe> <lm>   <tibble [1,082 × 2]>
##  3 <split [2.9K/1.1K]> Bootstrap03 <recipe> <lm>   <tibble [1,072 × 2]>
##  4 <split [2.9K/1.1K]> Bootstrap04 <recipe> <lm>   <tibble [1,077 × 2]>
##  5 <split [2.9K/1.1K]> Bootstrap05 <recipe> <lm>   <tibble [1,074 × 2]>
##  6 <split [2.9K/1.1K]> Bootstrap06 <recipe> <lm>   <tibble [1,088 × 2]>
##  7 <split [2.9K/1.1K]> Bootstrap07 <recipe> <lm>   <tibble [1,076 × 2]>
##  8 <split [2.9K/1.1K]> Bootstrap08 <recipe> <lm>   <tibble [1,068 × 2]>
##  9 <split [2.9K/1.1K]> Bootstrap09 <recipe> <lm>   <tibble [1,062 × 2]>
## 10 <split [2.9K/1.1K]> Bootstrap10 <recipe> <lm>   <tibble [1,064 × 2]>
## # … with 15 more rows

Calculating the RMSE:

library(yardstick)

## For binary classification, the first factor level is assumed to be the event.
## Set the global option `yardstick.event_first` to `FALSE` to change this.

results <- map_dfr(bt_samples$pred, rmse, Sale_Price, predicted)
results

## # A tibble: 25 x 3
##    .metric .estimator .estimate
##    <chr>   <chr>          <dbl>
##  1 rmse    standard       0.132
##  2 rmse    standard       0.128
##  3 rmse    standard       0.129
##  4 rmse    standard       0.123
##  5 rmse    standard       0.125
##  6 rmse    standard       0.140
##  7 rmse    standard       0.129
##  8 rmse    standard       0.130
##  9 rmse    standard       0.122
## 10 rmse    standard       0.127
## # … with 15 more rows
…
