• rsample
…
If we were fitting the model to the entire data set, we might model the logarithm of the sale price using

lm(log(price) ~ beds + baths + sqft + type, data = Sacramento)

To evaluate this model, we will use 10 repeats of 10-fold cross-validation and use the 100 holdout samples to evaluate the root mean squared error (in log dollar units).

First, let’s make the splits of the data:

library(rsample)
set.seed(4622)
rs_obj <- vfold_cv(Sacramento, V = 10, repeats = 10)
rs_obj
#> # 10-fold cross-validation repeated 10 times 
#> # A tibble: 100 x 3
#>         splits       id    id2
#> *       <list>    <chr>  <chr>
#> 1 <S3: rsplit> Repeat01 Fold01
#> 2 <S3: rsplit> Repeat01 Fold02
#> 3 <S3: rsplit> Repeat01 Fold03
#> 4 <S3: rsplit> Repeat01 Fold04
#> # ... with 96 more rows
…
To compute this data set for each of the 100 resamples, we’ll use the map function from the purrr package:

library(purrr)
rs_obj$results <- map(rs_obj$splits,
                      holdout_resids,
                      log(price) ~ beds + baths + sqft + type)
rs_obj
#> # 10-fold cross-validation repeated 10 times 
#> # A tibble: 100 x 4
#>         splits       id    id2                results
#> *       <list>    <chr>  <chr>                 <list>
#> 1 <S3: rsplit> Repeat01 Fold01 <data.frame [94 x 13]>
#> 2 <S3: rsplit> Repeat01 Fold02 <data.frame [94 x 13]>
#> 3 <S3: rsplit> Repeat01 Fold03 <data.frame [93 x 13]>
#> 4 <S3: rsplit> Repeat01 Fold04 <data.frame [93 x 13]>
#> # ... with 96 more rows
…
Bootstrap Estimates of Model Coefficients

Unless there is already a column in the resample object that contains the fitted model, a function can be used to fit the model and save all of the model coefficients. As before, purrr::map can be used to estimate and save these values for each split.

lm_coefs <- function(splits, ...) {
  ## use `analysis` or `as.data.frame` to get the analysis data
  mod <- lm(..., data = analysis(splits))
  as.data.frame(t(coef(mod)))
}
bt_resamples$betas <- map(.x = bt_resamples$splits, 
                          .f = lm_coefs, 
                          log(price) ~ beds + baths + sqft + type)
bt_resamples
#> # Bootstrap sampling with 200 resamples 
#> # A tibble: 200 x 4
#>         splits           id statistic                betas
#>         <list>        <chr>     <dbl>               <list>
#> 1 <S3: rsplit> Bootstrap001    -44227 <data.frame [1 x 6]>
#> 2 <S3: rsplit> Bootstrap002     19585 <data.frame [1 x 6]>
#> 3 <S3: rsplit> Bootstrap003     35000 <data.frame [1 x 6]>
#> 4 <S3: rsplit> Bootstrap004     50420 <data.frame [1 x 6]>
#> # ... with 196 more rows
…
  # Apply the transformations to the data set, save the 
  # predictor values, and convert to a matrix
  design_matrix <- extract(trained_rec, all_predictors())
  design_matrix <- as.matrix(design_matrix)
  
  # Get the logged price values and fit the model using `lm.fit`
  y <- extract(trained_rec, all_outcomes())$price
  
  lm.fit(x = design_matrix, y = y, ...)
}

bt_resamples$fits <- map(bt_resamples$splits, lm_coefs_rec, rec = rec)
bt_resamples
#> # Bootstrap sampling with 200 resamples 
#> # A tibble: 200 x 5
#>         splits           id statistic                betas       fits
#>         <list>        <chr>     <dbl>               <list>     <list>
#> 1 <S3: rsplit> Bootstrap001    -44227 <data.frame [1 x 6]> <list [8]>
#> 2 <S3: rsplit> Bootstrap002     19585 <data.frame [1 x 6]> <list [8]>
#> 3 <S3: rsplit> Bootstrap003     35000 <data.frame [1 x 6]> <list [8]>
#> 4 <S3: rsplit> Bootstrap004     50420 <data.frame [1 x 6]> <list [8]>
#> # ... with 196 more rows

From these objects, we can extract the coefficients, fit statistics, and other values.

Keeping Tidy

The broom package contains a class called tidy that created representations of objects that can be easily used for analysis, plotting, etc. rsample contains tidy methods for rset and rsplit objects. For example:

first_resample <- bt_resamples$splits[[1]]
class(first_resample)
#> [1] "rsplit"     "boot_split"
tidy(first_resample)
#> # A tibble: 932 x 2
#>     Row     Data
#>   <int>    <chr>
#> 1     1 Analysis
#> 2     3 Analysis
#> 3     6 Analysis
#> 4     9 Analysis
#> # ... with 928 more rows

and

class(bt_resamples)
#> [1] "bootstraps" "rset"       "tbl_df"     "tbl"        "data.frame"
tidy(bt_resamples)
#> # A tibble: 186,400 x 3
#>     Row     Data     Resample
#>   <int>    <chr>        <chr>
#> 1     1 Analysis Bootstrap001
#> 2     1 Analysis Bootstrap004
#> 3     1 Analysis Bootstrap007
#> 4     1 Analysis Bootstrap009
#> # ... with 186,396 more rows
…
