…
To evaluate this model, we will use 10 repeats of 10-fold
cross-validation and use the 100 holdout samples to evaluate the overall
accuracy of the model.

First, let’s make the splits of the data:

``` r
library(rsample)
set.seed(4622)
rs_obj <- vfold_cv(attrition, v = 10, repeats = 10)
rs_obj
#> #  10-fold cross-validation repeated 10 times 
#> # A tibble: 100 × 3
#>    splits             id       id2   
#>    <list>             <chr>    <chr> 
#>  1 <split [1323/147]> Repeat01 Fold01
#>  2 <split [1323/147]> Repeat01 Fold02
#>  3 <split [1323/147]> Repeat01 Fold03
#>  4 <split [1323/147]> Repeat01 Fold04
#>  5 <split [1323/147]> Repeat01 Fold05
#>  6 <split [1323/147]> Repeat01 Fold06
#>  7 <split [1323/147]> Repeat01 Fold07
#>  8 <split [1323/147]> Repeat01 Fold08
#>  9 <split [1323/147]> Repeat01 Fold09
#> 10 <split [1323/147]> Repeat01 Fold10
#> # ℹ 90 more rows
```
…
For this model, the `.fitted` value is the linear predictor in log-odds
units.

To compute this data set for each of the 100 resamples, we’ll use the
[`map()`](https://purrr.tidyverse.org/reference/map.html) function from
the purrr package:

``` r
library(purrr)
rs_obj$results <- map(rs_obj$splits,
                      holdout_results,
                      mod_form)
rs_obj
#> #  10-fold cross-validation repeated 10 times 
#> # A tibble: 100 × 4
#>    splits             id       id2    results            
#>    <list>             <chr>    <chr>  <list>             
#>  1 <split [1323/147]> Repeat01 Fold01 <tibble [147 × 34]>
#>  2 <split [1323/147]> Repeat01 Fold02 <tibble [147 × 34]>
#>  3 <split [1323/147]> Repeat01 Fold03 <tibble [147 × 34]>
#>  4 <split [1323/147]> Repeat01 Fold04 <tibble [147 × 34]>
#>  5 <split [1323/147]> Repeat01 Fold05 <tibble [147 × 34]>
#>  6 <split [1323/147]> Repeat01 Fold06 <tibble [147 × 34]>
#>  7 <split [1323/147]> Repeat01 Fold07 <tibble [147 × 34]>
#>  8 <split [1323/147]> Repeat01 Fold08 <tibble [147 × 34]>
#>  9 <split [1323/147]> Repeat01 Fold09 <tibble [147 × 34]>
#> 10 <split [1323/147]> Repeat01 Fold10 <tibble [147 × 34]>
#> # ℹ 90 more rows
```
…
``` r
glm_coefs <- function(splits, ...) {
  ## use `analysis` or `as.data.frame` to get the analysis data
  mod <- glm(..., data = analysis(splits), family = binomial)
  as.data.frame(t(coef(mod)))
}
bt_resamples$betas <- map(.x = bt_resamples$splits, 
                          .f = glm_coefs, 
                          mod_form)
bt_resamples
#> # Bootstrap sampling 
#> # A tibble: 500 × 4
#>    splits             id           wage_diff betas       
#>    <list>             <chr>            <dbl> <list>      
#>  1 <split [1470/558]> Bootstrap001      136  <df [1 × 6]>
#>  2 <split [1470/528]> Bootstrap002      282. <df [1 × 6]>
#>  3 <split [1470/541]> Bootstrap003      470  <df [1 × 6]>
#>  4 <split [1470/561]> Bootstrap004     -213  <df [1 × 6]>
#>  5 <split [1470/518]> Bootstrap005      453  <df [1 × 6]>
#>  6 <split [1470/539]> Bootstrap006      684  <df [1 × 6]>
#>  7 <split [1470/542]> Bootstrap007       60  <df [1 × 6]>
#>  8 <split [1470/536]> Bootstrap008      286  <df [1 × 6]>
#>  9 <split [1470/552]> Bootstrap009      -30  <df [1 × 6]>
#> 10 <split [1470/517]> Bootstrap010      410  <df [1 × 6]>
#> # ℹ 490 more rows
…
## Keeping Tidy

As previously mentioned, the [broom
package](https://cran.r-project.org/package=broom) contains a class
called `tidy` that created representations of objects that can be easily
used for analysis, plotting, etc. rsample contains `tidy` methods for
`rset` and `rsplit` objects. For example:

``` r
first_resample <- bt_resamples$splits[[1]]
class(first_resample)
#> [1] "boot_split" "rsplit"
tidy(first_resample)
#> # A tibble: 1,470 × 2
#>      Row Data    
#>    <int> <chr>   
#>  1     2 Analysis
#>  2     3 Analysis
#>  3     4 Analysis
#>  4     7 Analysis
#>  5     9 Analysis
#>  6    10 Analysis
#>  7    11 Analysis
#>  8    13 Analysis
#>  9    18 Analysis
#> 10    19 Analysis
#> # ℹ 1,460 more rows
```

and

``` r
class(bt_resamples)
#> [1] "bootstraps" "rset"       "tbl_df"     "tbl"        "data.frame"
tidy(bt_resamples)
#> # A tibble: 735,000 × 3
#>      Row Data     Resample    
#>    <int> <chr>    <chr>       
#>  1     1 Analysis Bootstrap002
#>  2     1 Analysis Bootstrap004
#>  3     1 Analysis Bootstrap007
#>  4     1 Analysis Bootstrap008
#>  5     1 Analysis Bootstrap009
#>  6     1 Analysis Bootstrap010
#>  7     1 Analysis Bootstrap011
#>  8     1 Analysis Bootstrap013
#>  9     1 Analysis Bootstrap015
#> 10     1 Analysis Bootstrap016
#> # ℹ 734,990 more rows
```
